module gitlab.com/CoiaPrant/clog

go 1.18

require (
	github.com/fatih/color v1.16.0
	golang.org/x/sys v0.16.0
)

require (
	github.com/mattn/go-colorable v0.1.13 // indirect
	github.com/mattn/go-isatty v0.0.20 // indirect
)
